Place,Name,Sex,BirthDate,Equipment,Division,BodyweightKg,WeightClassKg,Squat1Kg,Squat2Kg,Squat3Kg,Best3SquatKg,Bench1Kg,Bench2Kg,Bench3Kg,Best3BenchKg,Deadlift1Kg,Deadlift2Kg,Deadlift3Kg,Best3DeadliftKg,TotalKg,Event,Team
1,Karen Desiree Meza Champa,F,1999-08-26,Raw,Juniors 20-23,51.6,52,112.5,-122.5,127.5,127.5,40,45,-47.5,45,120,-130,132.5,132.5,305,SBD,
1,Abril Danely Perez Soberanes,F,2000-04-19,Raw,Juniors 20-23,73,75,125,135,-145,135,50,60,-65,60,132.5,147.5,157.5,157.5,352.5,SBD,KING DOM
1,Amor Arce,F,1978-03-01,Raw,Masters 45-49,74.9,75,115,120,130,130,60,75,80,80,120,130,140,140,350,SBD,
1,Nancy Loo,F,1979-04-08,Raw,Masters 40-44,81.4,82.5,-80,80,,80,42.5,,,42.5,100,,,100,222.5,SBD,
1,Magdalena Avendaño,F,1963-07-22,Raw,Masters 55-59,59,60,70,-75,,70,60,65,-67.5,65,100,105,112.5,112.5,247.5,SBD,
1,Flor Soberanes Mendoza,F,1964-10-05,Raw,Masters 55-59,81.2,82.5,122.5,132.5,137.5,137.5,70,-75,-75,70,132.5,140,145,145,352.5,SBD,KING DOM
1,Karen Desiree Meza Champa,F,1999-08-26,Raw,Open,51.6,52,112.5,-122.5,127.5,127.5,40,45,-47.5,45,120,-130,132.5,132.5,305,SBD,
1,Rosio Alonzo Diaz,F,1984-05-05,Raw,Open,55.8,56,100,-110,-110,100,50,-55,-55,50,110,115,-120,115,265,SBD,
2,Jessica Ninel Marquez Olivas,F,2007-07-23,Raw,Open,54.8,56,65,67.5,-72.5,67.5,25,-30,-30,25,85,95,100,100,192.5,SBD,
1,Magdalena Avendaño,F,1963-07-22,Raw,Open,59,60,70,-75,,70,60,65,-67.5,65,100,105,112.5,112.5,247.5,SBD,
1,Ana Karen Rivera Rendon,F,1996-04-10,Raw,Open,66.5,67.5,140,150,157.5,157.5,70,-75,-75,70,140,147.5,-155,147.5,375,SBD,
2,Paola Ruvalcaba Montalvo,F,1998-06-03,Raw,Open,67.5,67.5,130,140,147.5,147.5,60,65,67.5,67.5,115,122.5,127.5,127.5,342.5,SBD,KING DOM
3,Lluvia Elizabeth Garcia Cabrera,F,1992-08-09,Raw,Open,66.1,67.5,100,110,120,120,42.5,47.5,50,50,100,105,115,115,285,SBD,
4,Paloma Garate Romero,F,2006-09-11,Raw,Open,60.4,67.5,90,97.5,100,100,50,-55,-55,50,97.5,100,105,105,255,SBD,
DQ,Elva Alessandra Coronado Guerra,F,2005-02-22,Raw,Open,65.7,67.5,-105,-115,-125,,50,55,-60,55,110,120,-130,120,,SBD,
1,Aurora Perez Lopez,F,1985-06-24,Raw,Open,72.4,75,182.5,190,200,200,105,110,115,115,192.5,202.5,-212.5,202.5,517.5,SBD,
2,Abril Danely Perez Soberanes,F,2000-04-19,Raw,Open,73,75,125,135,-145,135,50,60,-65,60,132.5,147.5,157.5,157.5,352.5,SBD,KING DOM
3,Amor Arce,F,1978-03-01,Raw,Open,74.9,75,115,120,130,130,60,75,80,80,120,130,140,140,350,SBD,
4,Brisa America Ayala,F,1986-07-18,Raw,Open,70.6,75,125,135,140,140,55,-60,60,60,125,135,142.5,142.5,342.5,SBD,
1,Flor Soberanes Mendoza,F,1964-10-05,Raw,Open,81.2,82.5,122.5,132.5,137.5,137.5,70,-75,-75,70,132.5,140,145,145,352.5,SBD,KING DOM
2,Esmeralda Bañuelos Arellano,F,1988-03-25,Raw,Open,75.5,82.5,115,120,125,125,50,55,-60,55,120,130,-137.5,130,310,SBD,KING DOM
3,Nancy Loo,F,1979-04-08,Raw,Open,81.4,82.5,-80,80,,80,42.5,,,42.5,100,,,100,222.5,SBD,
1,Malillany Tanairy Hernandez Mandujano,F,2009-01-11,Raw,Teen 13-19,51.5,52,65,67.5,72.5,72.5,35,-40,-40,35,-70,70,80,80,187.5,SBD,
1,Jessica Ninel Marquez Olivas,F,2007-07-23,Raw,Teen 13-19,54.8,56,65,67.5,-72.5,67.5,25,-30,-30,25,85,95,100,100,192.5,SBD,
1,Paloma Garate Romero,F,2006-09-11,Raw,Teen 13-19,60.4,67.5,90,97.5,100,100,50,-55,-55,50,97.5,100,105,105,255,SBD,
DQ,Elva Alessandra Coronado Guerra,F,2005-02-22,Raw,Teen 13-19,65.7,67.5,-105,-115,-125,,50,55,-60,55,110,120,-130,120,,SBD,
1,Brianda Aylee Valdez,F,,Raw,Teen 13-19,73.9,75,100,110,120,120,55,-60,-60,55,112.5,120,130,130,305,SBD,
1,Hiromy Suzeth Gonzalez Herrera,F,2004-04-16,Raw,Teen 13-19,77.2,82.5,90,-92.5,-95,90,-30,30,-35,30,100,-102.5,102.5,102.5,222.5,SBD,
1,Iris Liliana Herrera Alvarez,F,1990-09-01,Wraps,Open,55.8,56,110,115,-120,115,40,-45,-45,40,120,125,127.5,127.5,282.5,SBD,
1,Mariana Sanchez,F,2003-07-08,Wraps,Open,62.2,67.5,100,110,115,115,45,50,-52.5,50,125,130,135,135,300,SBD,
1,Mariana Sanchez,F,2003-07-08,Wraps,Teen 13-19,62.2,67.5,100,110,115,115,45,50,-52.5,50,125,130,135,135,300,SBD,
NS,Heriberto Mendez Garcia,M,2000-07-03,Raw,Juniors 20-23,67.5,67.5,,,,,,,,,,,,,,SBD,
1,Jonatan Villalobos,M,2002-01-21,Raw,Juniors 20-23,72.1,75,185,200,205,205,127.5,132.5,137.5,137.5,215,225,-230,225,567.5,SBD,
1,Alberto Ortiz Arandia,M,2000-03-28,Raw,Juniors 20-23,81.1,82.5,217.5,227.5,232.5,232.5,135,140,142.5,142.5,232.5,240,245,245,620,SBD,
2,Christian Hermosillo,M,1999-11-05,Raw,Juniors 20-23,81.9,82.5,180,190,202.5,202.5,105,110,-115,110,210,217.5,225,225,537.5,SBD,
1,Omar Morales Ysidoro,M,1999-09-22,Raw,Juniors 20-23,87.8,90,-175,175,180,180,120,-130,130,130,200,-210,210,210,520,SBD,
NS,Juan Arturo Gonzalez Escobar,M,1999-10-19,Raw,Juniors 20-23,100,100,,,,,,,,,,,,,,SBD,
1,Rafael Amparan Moncayo,M,1999-08-29,Raw,Juniors 20-23,144.6,140+,220,-230,-230,220,120,-140,-140,120,220,230,240,240,580,SBD,
1,Cesar Ramirez De Avila,M,1983-05-19,Raw,Masters 40-44,95.1,100,165,175,-182.5,175,135,145,-150,145,185,195,205,205,525,SBD,
2,Pedro Ceseña Torres,M,1981-04-08,Raw,Masters 40-44,91.5,100,145,155,170,170,130,135,140,140,165,180,192.5,192.5,502.5,SBD,
1,Mario Hernandez Cisneros,M,1980-11-30,Raw,Masters 40-44,104.8,110,175,180,190,190,170,-175,-175,170,200,210,-217.5,210,570,SBD,
1,Jose Martin Martinez Rodriguez,M,1966-07-29,Raw,Masters 55-59,93,100,-140,150,-160,150,80,100,-102.5,100,180,200,210,210,460,SBD,
1,Nemuel Perez Guizado,M,1966-09-09,Raw,Masters 55-59,102.5,110,155,165,167.5,167.5,115,125,-130,125,175,185,-195,185,477.5,SBD,KING DOM
1,Karlos Alexis Salazar Morales,M,2007-08-02,Raw,Open,48,52,100,112.5,-120,112.5,60,65,-70,65,110,120,130,130,307.5,SBD,
1,Fernando Rivera #3,M,1998-02-23,Raw,Open,67.4,67.5,170,180,185,185,120,125,-130,125,225,232.5,-235,232.5,542.5,SBD,
2,David Eleazar Christian Vazquez,M,1984-02-10,Raw,Open,66.9,67.5,145,160,-170,160,100,110,115,115,180,200,212.5,212.5,487.5,SBD,
3,Alonso Hiram Vazquez Zapien,M,1985-11-28,Raw,Open,67.4,67.5,160,170,180,180,100,110,-117.5,110,160,180,-185,180,470,SBD,
4,Alvaro Omar Estrada Moreno,M,1999-02-03,Raw,Open,65.6,67.5,145,155,-160,155,90,95,100,100,165,175,-180,175,430,SBD,KING DOM
NS,Alonso Hiram Vazquez Zapien,M,1985-11-28,Raw,Open,67.5,67.5,,,,,,,,,,,,,,SBD,
1,Jonatan Villalobos,M,2002-01-21,Raw,Open,72.1,75,185,200,205,205,127.5,132.5,137.5,137.5,215,225,-230,225,567.5,SBD,
2,Jonathan Escudero,M,1988-06-29,Raw,Open,73.7,75,190,200,-210,200,125,132.5,135,135,200,210,-220,210,545,SBD,KING DOM
3,Miguel Villareal,M,1998-06-22,Raw,Open,74.2,75,-172.5,172.5,-182.5,172.5,105,110,115,115,217.5,232.5,242.5,242.5,530,SBD,
4,Jorge E. Lara Camargo,M,1995-12-23,Raw,Open,73.4,75,155,160,165,165,100,110,117.5,117.5,185,195,205,205,487.5,SBD,
5,Alejandro Salas,M,1997-10-15,Raw,Open,74.1,75,132.5,135,-140,135,97.5,100,105,105,192.5,197.5,200,200,440,SBD,
1,Edwin Lopez Vidaña,M,1987-10-31,Raw,Open,82.5,82.5,235,250,-260,250,175,185,190,190,275,285,295,295,735,SBD,
2,Emiliano Mancilla Diaz,M,1996-03-04,Raw,Open,82.5,82.5,195,205,210,210,135,142.5,-147.5,142.5,230,240,245,245,597.5,SBD,
1,Miguel Talamantes G,M,1987-10-15,Raw,Open,89.2,90,210,215,220,220,155,-162.5,,155,240,250,-255,250,625,SBD,
2,Mario Sanson Rivera Martinez,M,1997-10-15,Raw,Open,86.3,90,200,210,-220,210,135,140,142.5,142.5,225,-230,235,235,587.5,SBD,
3,Fernando Alfredo Lopez Mendez,M,1995-09-17,Raw,Open,83.3,90,165,175,185,185,120,-125,-125,120,215,230,-240,230,535,SBD,KING DOM
1,Jorge Alejandro Martinez Saito,M,1988-09-25,Raw,Open,95.3,100,235,245,252.5,252.5,185,200,205,205,280,300,-302.5,300,757.5,SBD,
1,Milton Aleman Barreto,M,1991-10-30,Raw,Open,109.8,110,290,-300,300,300,187.5,195,200,200,300,312.5,-317.5,312.5,812.5,SBD,
2,Jose Carlos Dominguez Norzagaray,M,1989-11-08,Raw,Open,103.4,110,245,260,272.5,272.5,160,172.5,180,180,290,305,315,315,767.5,SBD,
3,Jaime Garate,M,2006-02-08,Raw,Open,103.9,110,175,-180,180,180,110,-120,-120,110,190,200,-215,200,490,SBD,
1,Javier Velázquez,M,1997-12-03,Raw,Open,120.3,125,245,255,265,265,157.5,162.5,-170,162.5,290,300,310,310,737.5,SBD,
2,Alejandro Fontes,M,1991-09-09,Raw,Open,110.6,125,240,-250,-250,240,155,-165,165,165,280,300,-310,300,705,SBD,
1,Armando Salazar Chapa,M,1992-03-10,Raw,Open,128,140,200,220,230,230,110,125,-140,125,220,240,-260,240,595,SBD,
2,Cesar Alfonso Franco Ibarra,M,1987-04-21,Raw,Open,133,140,-100,100,-120,100,100,-120,-120,100,100,-120,120,120,320,SBD,
1,Alejandro Gaytan,M,1989-03-17,Raw,Open,146.1,140+,335,347.5,357.5,357.5,190,197.5,202.5,202.5,285,295,302.5,302.5,862.5,SBD,
1,Karlos Alexis Salazar Morales,M,2007-08-02,Raw,Teen 13-19,48,52,100,112.5,-120,112.5,60,65,-70,65,110,120,130,130,307.5,SBD,
1,Arim Vindiola,M,2008-05-20,Raw,Teen 13-19,53.1,56,70,80,95,95,45,-60,-60,45,100,110,115,115,255,SBD,
1,Arturo Isai Gonzalez Garcia,M,2008-04-19,Raw,Teen 13-19,56.2,60,115,120,-127.5,120,60,65,-67.5,65,165,172.5,180,180,365,SBD,
2,Ricardo Nereida Segovia,M,2004-08-06,Raw,Teen 13-19,60,60,100,107.5,112.5,112.5,60,70,76,76,130,140,150,150,338.5,SBD,
NS,Emmanuel Maldonado Valdez,M,2004-04-16,Raw,Teen 13-19,60,60,,,,,,,,,,,,,,SBD,
NS,Padilla Lopez Cosme Manuel,M,2006-02-04,Raw,Teen 13-19,60,60,,,,,,,,,,,,,,SBD,
1,Cosme Manuel Padilla Lopez,M,2006-02-04,Raw,Teen 13-19,67.5,67.5,125,140,145,145,80,90,-95,90,-170,175,-180,175,410,SBD,
2,Angel Alberto Avalos Bonilla,M,2005-07-26,Raw,Teen 13-19,67.5,67.5,115,125,-132.5,125,85,92.5,-97.5,92.5,165,-170,170,170,387.5,SBD,
1,Alexis Osiel Arevalo Coronado,M,2005-07-28,Raw,Teen 13-19,72.4,75,180,190,-200,190,110,115,-117.5,115,210,220,231,231,536,SBD,
1,José Luis Hernández Cosio,M,2004-04-14,Raw,Teen 13-19,80.3,82.5,200,210,215,215,125,132.5,137.5,137.5,230,242.5,250,250,602.5,SBD,
2,Elian Jafet Garcia Flores,M,2005-07-09,Raw,Teen 13-19,77.4,82.5,-125,135,142.5,142.5,80,85,95,95,165,175,-182.5,175,412.5,SBD,
1,Alexandro Parra Escobar,M,2005-03-15,Raw,Teen 13-19,89.6,90,130,145,155,155,90,95,102.5,102.5,-160,160,180,180,437.5,SBD,
1,Jorge Beltran,M,2005-07-08,Raw,Teen 13-19,99.8,100,210,-225,230,230,110,120,-130,120,225,240,-245,240,590,SBD,
2,Ivan Franco Alonzo,M,2004-05-16,Raw,Teen 13-19,97.4,100,160,180,190,190,100,115,-125,115,165,-185,195,195,500,SBD,
NS,Jesus Zuñiga Jimenez,M,2006-08-25,Raw,Teen 13-19,100,100,,,,,,,,,,,,,,SBD,
1,Juan Antonio Chan,M,2003-12-19,Raw,Teen 13-19,107.2,110,175,-190,-190,175,120,-125,-125,120,190,200,-212.5,200,495,SBD,
2,Jaime Garate,M,2006-02-08,Raw,Teen 13-19,103.9,110,175,-180,180,180,110,-120,-120,110,190,200,-215,200,490,SBD,
3,Luis Rutilo Ponce Galvan,M,2006-10-28,Raw,Teen 13-19,107.4,110,60,100,-120,100,65,75,-85,75,180,190,200,200,375,SBD,
1,Rodolfo Richard Ruiz,M,2003-06-10,Raw,Teen 13-19,118.9,125,220,240,-260,240,140,150,-160,150,270,290,-300,290,680,SBD,
NS,Eric Jurado Sanchez,M,1978-02-14,Wraps,Masters 45-49,82.5,82.5,,,,,,,,,,,,,,SBD,
NS,Juan Carlos Austria Torres,M,1995-12-21,Wraps,Open,67.5,67.5,,,,,,,,,,,,,,SBD,
1,Alberto Becerra Rodriguez,M,1997-04-16,Wraps,Open,74.9,75,167.5,177.5,187.5,187.5,110,-117.5,-117.5,110,210,225,235,235,532.5,SBD,
1,Alfredo Garza Cruz,M,1993-01-12,Wraps,Open,80.1,82.5,160,170,185,185,140,150,-155,150,220,230,240,240,575,SBD,
NS,Luis Armando Gutierrez Martinez,M,1995-01-06,Wraps,Open,82.5,82.5,,,,,,,,,,,,,,SBD,
1,Joaquín Saldaña,M,1996-01-15,Wraps,Open,98.9,100,305,315,327.5,327.5,-155,155,162.5,162.5,265,280,-290,280,770,SBD,
NS,Fabian Quirarte,M,1984-11-22,Multi-ply,Open,125,125,,,,,,,,,,,,,,SBD,
1,Cesar De Jesus Espinoza Cervantes,M,2003-12-26,Multi-ply,Teen 13-19,62.5,67.5,160,-170,-170,160,100,-105,-105,100,210,-220,-222.5,210,470,SBD,
1,Oscar Lopez Gudiño,M,1977-12-13,Raw,Masters 45-49,77.6,82.5,,,,,100,105,110,110,,,,,110,B,
1,Omar Morales Ysidoro,M,1999-09-22,Raw,Juniors 20-23,87.8,90,,,,,120,-130,130,130,,,,,130,B,
1,Juan Antonio Chan,M,2003-12-19,Raw,Teen 13-19,107.2,110,,,,,120,-125,-125,120,,,,,120,B,
